…
``` r
franData <- fetchFranTotal() %>% filter(data.activeFranchise==1) %>% arrange(data.firstSeasonId)
```

    ## No encoding supplied: defaulting to UTF-8.

``` r
franData %>% as_tibble() %>% 
  mutate(franAge = ifelse(franData$data.firstSeasonId >= 20012002, "Newest",
       ifelse(franData$data.firstSeasonId >= 19951996, "New",
              ifelse(franData$data.firstSeasonId >= 19801981, "Old",
                     ifelse(franData$data.firstSeasonId >= 19671968, "Older", "Oldest")))))
```

    ## # A tibble: 87 x 32
    ##    data.id data.activeFran~ data.firstSeaso~ data.franchiseId data.gameTypeId
    ##      <int>            <int>            <int>            <int>           <int>
    ##  1      15                1         19171918                1               3
    ##  2      16                1         19171918                1               2
    ##  3     101                1         19171918                5               2
    ##  4     102                1         19171918                5               3
    ##  5     103                1         19191920                5               3
    ##  6     104                1         19191920                5               2
    ##  7      11                1         19241925                6               2
    ##  8      12                1         19241925                6               3
    ##  9       5                1         19261927               10               2
    ## 10       6                1         19261927               10               3
    ## # ... with 77 more rows, and 27 more variables: data.gamesPlayed <int>,
    ## #   data.goalsAgainst <int>, data.goalsFor <int>, data.homeLosses <int>,
    ## #   data.homeOvertimeLosses <int>, data.homeTies <int>, data.homeWins <int>,
    ## #   data.lastSeasonId <int>, data.losses <int>, data.overtimeLosses <int>,
    ## #   data.penaltyMinutes <int>, data.pointPctg <dbl>, data.points <int>,
    ## #   data.roadLosses <int>, data.roadOvertimeLosses <int>, data.roadTies <int>,
    ## #   data.roadWins <int>, data.shootoutLosses <int>, data.shootoutWins <int>,
    ## #   data.shutouts <int>, data.teamId <int>, data.teamName <chr>,
    ## #   data.ties <int>, data.triCode <chr>, data.wins <int>, total <int>,
…
